// Jest Snapshot v1, https://goo.gl/fbAQLP

exports[`component: SearchCity should match snapshot 1`] = `
<Fragment>
  <li
    className="list-group-item"
  >
    <form
      className="form-inline"
      onSubmit={[MockFunction]}
    >
      <div
        className="form-group"
      >
        <input
          className="form-control"
          id="city"
          placeholder="City"
          type="text"
        />
      </div>
      <button
        className="btn btn-default"
        type="submit"
      >
        Search
      </button>
    </form>
  </li>
</Fragment>
`;
